[
  {
    "model": "books.book",
    "pk": 1,
    "fields": {
      "name": "Война и мир",
      "author": "Ф.Д. Достоевский",
      "pub_date": "2018-02-27"
    }
  },
  {
    "model": "books.book",
    "pk": 2,
    "fields": {
      "name": "1984",
      "author": "Джордж Оруэл",
      "pub_date": "2016-12-06"
    }
  },
  {
    "model": "books.book",
    "pk": 3,
    "fields": {
      "name": "Some thoughts",
      "author": "Samuel Stirling",
      "pub_date": "2016-12-06"
    }
  },
  {
    "model": "books.book",
    "pk": 4,
    "fields": {
      "name": "Never mind",
      "author": "Zummhummer",
      "pub_date": "2016-12-06"
    }
  },
  {
    "model": "books.book",
    "pk": 5,
    "fields": {
      "name": "The end is close",
      "author": "Socratis",
      "pub_date": "2015-12-06"
    }
  }
]